…
*Note: `maze_points` is a dataset of `ggpacman` (`data("maze_points",
package = "ggpacman")`).*

### Pac-Man character

Time to draw the main character. To drax Pac-Man, I needed few things
first:

  - Pac-Man moves, *i.e.*, all the coordinates where Pac-Man is supposed
    to be at every step.
    
    ``` r
    data("pacman", package = "ggpacman")
    unnest(pacman, c("x", "y"))
    #> # A tibble: 150 x 3
    #>        x     y colour 
    #>    <dbl> <dbl> <chr>  
    #>  1    10     6 Pac-Man
    #>  2    10     6 Pac-Man
    #>  3    10     6 Pac-Man
    #>  4    10     6 Pac-Man
    #>  5    10     6 Pac-Man
    #>  6    10     6 Pac-Man
    #>  7    10     6 Pac-Man
    #>  8    10     6 Pac-Man
    #>  9    10     6 Pac-Man
    #> 10    10     6 Pac-Man
    #> # … with 140 more rows
    ```
…
  unnest(c("x", "y")) %>%
  mutate(
    state_x = sign(x - lag(x)),
    state_y = sign(y - lag(y)),
    state = case_when(
      (is.na(state_x) | state_x %in% 0) &
        (is.na(state_y) | state_y %in% 0) ~ list(c("open_right", "close_right")),
      state_x == 1 & state_y == 0 ~ list(c("open_right", "close_right")),
      state_x == -1 & state_y == 0 ~ list(c("open_left", "close_left")),
      state_x == 0 & state_y == -1 ~ list(c("open_down", "close_down")),
      state_x == 0 & state_y == 1 ~ list(c("open_up", "close_up"))
    )
  )  %>%
  unnest("state")
#> # A tibble: 300 x 6
#>        x     y colour  state_x state_y state      
#>    <dbl> <dbl> <chr>     <dbl>   <dbl> <chr>      
#>  1    10     6 Pac-Man      NA      NA open_right 
#>  2    10     6 Pac-Man      NA      NA close_right
#>  3    10     6 Pac-Man       0       0 open_right 
#>  4    10     6 Pac-Man       0       0 close_right
#>  5    10     6 Pac-Man       0       0 open_right 
#>  6    10     6 Pac-Man       0       0 close_right
#>  7    10     6 Pac-Man       0       0 open_right 
#>  8    10     6 Pac-Man       0       0 close_right
#>  9    10     6 Pac-Man       0       0 open_right 
#> 10    10     6 Pac-Man       0       0 close_right
#> # … with 290 more rows
```
…
        (is.na(state_x) | state_x %in% 0) &
          (is.na(state_y) | state_y %in% 0) ~ list(c("open_right", "close_right")),
        state_x == 1 & state_y == 0 ~ list(c("open_right", "close_right")),
        state_x == -1 & state_y == 0 ~ list(c("open_left", "close_left")),
        state_x == 0 & state_y == -1 ~ list(c("open_down", "close_down")),
        state_x == 0 & state_y == 1 ~ list(c("open_up", "close_up"))
      )
    )  %>%
    unnest("state") %>%
    mutate(step = 1:n()) %>%
    left_join(y = pacman_state, by = "state")
}
pacman_moves <- compute_pacman_coord(pacman)
pacman_moves
#> # A tibble: 300 x 9
#>        x     y colour  state_x state_y state        step start   end
#>    <dbl> <dbl> <chr>     <dbl>   <dbl> <chr>       <int> <dbl> <dbl>
#>  1    10     6 Pac-Man      NA      NA open_right      1  7.33  2.09
#>  2    10     6 Pac-Man      NA      NA close_right     2  7.85  1.57
#>  3    10     6 Pac-Man       0       0 open_right      3  7.33  2.09
#>  4    10     6 Pac-Man       0       0 close_right     4  7.85  1.57
#>  5    10     6 Pac-Man       0       0 open_right      5  7.33  2.09
#>  6    10     6 Pac-Man       0       0 close_right     6  7.85  1.57
#>  7    10     6 Pac-Man       0       0 open_right      7  7.33  2.09
#>  8    10     6 Pac-Man       0       0 close_right     8  7.85  1.57
#>  9    10     6 Pac-Man       0       0 open_right      9  7.33  2.09
#> 10    10     6 Pac-Man       0       0 close_right    10  7.85  1.57
#> # … with 290 more rows
```
…
